%YAML 1.1
%TAG !u! tag:unity3d.com,2011:
--- !u!1045 &1
EditorBuildSettings:
  m_ObjectHideFlags: 0
  serializedVersion: 2
  m_Scenes:
  - enabled: 1
    path: Assets/Scenes/LoginScene.unity
    guid: 99c9720ab356a0642a771bea13969a05
  - enabled: 1
    path: Assets/Scenes/GameScene.unity
    guid: 330984d25d66888498e15c51eea10b68
  - enabled: 1
    path: Assets/Scenes/LoadingScene.unity
    guid: 9157b3b6724b4944cbb4acc84fe9a675
  - enabled: 1
    path: Assets/Scenes/SplashScene.unity
    guid: 23e8d02cc8ffe0d41bb9b96e13130af2
  m_configObjects: {}
